info face="Agency FB" size=32 bold=0 italic=0 charset="" unicode=0 stretchH=100 smooth=1 aa=1 padding=1,1,1,1 spacing=-2,-2
common lineHeight=39 base=32 scaleW=512 scaleH=512 pages=1 packed=0
page id=0 file="AgencyFB.png"
chars count=193
char id=0       x=413  y=0    width=14   height=28   xoffset=1    yoffset=5    xadvance=16   page=0    chnl=0 
char id=10      x=413  y=0    width=14   height=28   xoffset=1    yoffset=5    xadvance=16   page=0    chnl=0 
char id=32      x=0    y=0    width=0    height=0    xoffset=-1   yoffset=31   xadvance=6    page=0    chnl=0 
char id=33      x=460  y=34   width=5    height=26   xoffset=1    yoffset=7    xadvance=6    page=0    chnl=0 
char id=34      x=26   y=108  width=8    height=10   xoffset=1    yoffset=7    xadvance=10   page=0    chnl=0 
char id=35      x=38   y=60   width=17   height=26   xoffset=0    yoffset=7    xadvance=17   page=0    chnl=0 
char id=36      x=293  y=0    width=12   height=30   xoffset=1    yoffset=5    xadvance=13   page=0    chnl=0 
char id=37      x=16   y=60   width=22   height=26   xoffset=0    yoffset=7    xadvance=21   page=0    chnl=0 
char id=38      x=55   y=60   width=14   height=26   xoffset=1    yoffset=7    xadvance=14   page=0    chnl=0 
char id=39      x=506  y=86   width=5    height=10   xoffset=1    yoffset=7    xadvance=6    page=0    chnl=0 
char id=40      x=237  y=0    width=8    height=30   xoffset=1    yoffset=7    xadvance=9    page=0    chnl=0 
char id=41      x=245  y=0    width=9    height=30   xoffset=0    yoffset=6    xadvance=9    page=0    chnl=0 
char id=42      x=0    y=108  width=13   height=12   xoffset=0    yoffset=7    xadvance=13   page=0    chnl=0 
char id=43      x=468  y=86   width=13   height=13   xoffset=0    yoffset=15   xadvance=13   page=0    chnl=0 
char id=44      x=90   y=108  width=6    height=6    xoffset=0    yoffset=29   xadvance=5    page=0    chnl=0 
char id=45      x=110  y=108  width=8    height=4    xoffset=0    yoffset=21   xadvance=9    page=0    chnl=0 
char id=46      x=105  y=108  width=5    height=5    xoffset=0    yoffset=28   xadvance=5    page=0    chnl=0 
char id=47      x=477  y=34   width=16   height=26   xoffset=-1   yoffset=7    xadvance=14   page=0    chnl=0 
char id=48      x=448  y=34   width=12   height=26   xoffset=1    yoffset=7    xadvance=14   page=0    chnl=0 
char id=49      x=345  y=34   width=6    height=26   xoffset=0    yoffset=7    xadvance=6    page=0    chnl=0 
char id=50      x=351  y=34   width=12   height=26   xoffset=0    yoffset=7    xadvance=12   page=0    chnl=0 
char id=51      x=363  y=34   width=12   height=26   xoffset=1    yoffset=7    xadvance=14   page=0    chnl=0 
char id=52      x=375  y=34   width=13   height=26   xoffset=0    yoffset=7    xadvance=13   page=0    chnl=0 
char id=53      x=388  y=34   width=12   height=26   xoffset=1    yoffset=7    xadvance=13   page=0    chnl=0 
char id=54      x=400  y=34   width=12   height=26   xoffset=1    yoffset=7    xadvance=14   page=0    chnl=0 
char id=55      x=412  y=34   width=12   height=26   xoffset=0    yoffset=7    xadvance=11   page=0    chnl=0 
char id=56      x=424  y=34   width=12   height=26   xoffset=1    yoffset=7    xadvance=14   page=0    chnl=0 
char id=57      x=436  y=34   width=12   height=26   xoffset=1    yoffset=7    xadvance=14   page=0    chnl=0 
char id=58      x=385  y=86   width=5    height=15   xoffset=0    yoffset=18   xadvance=5    page=0    chnl=0 
char id=59      x=503  y=60   width=6    height=17   xoffset=-1   yoffset=18   xadvance=5    page=0    chnl=0 
char id=60      x=365  y=86   width=10   height=16   xoffset=0    yoffset=14   xadvance=11   page=0    chnl=0 
char id=61      x=34   y=108  width=13   height=10   xoffset=1    yoffset=17   xadvance=15   page=0    chnl=0 
char id=62      x=375  y=86   width=10   height=16   xoffset=1    yoffset=14   xadvance=11   page=0    chnl=0 
char id=63      x=465  y=34   width=12   height=26   xoffset=0    yoffset=7    xadvance=12   page=0    chnl=0 
char id=64      x=493  y=34   width=17   height=26   xoffset=0    yoffset=7    xadvance=18   page=0    chnl=0 
char id=65      x=488  y=0    width=14   height=26   xoffset=-1   yoffset=7    xadvance=13   page=0    chnl=0 
char id=66      x=0    y=34   width=12   height=26   xoffset=1    yoffset=7    xadvance=14   page=0    chnl=0 
char id=67      x=12   y=34   width=12   height=26   xoffset=1    yoffset=7    xadvance=14   page=0    chnl=0 
char id=68      x=24   y=34   width=12   height=26   xoffset=1    yoffset=7    xadvance=14   page=0    chnl=0 
char id=69      x=36   y=34   width=10   height=26   xoffset=1    yoffset=7    xadvance=12   page=0    chnl=0 
char id=70      x=46   y=34   width=10   height=26   xoffset=1    yoffset=7    xadvance=11   page=0    chnl=0 
char id=71      x=56   y=34   width=12   height=26   xoffset=1    yoffset=7    xadvance=14   page=0    chnl=0 
char id=72      x=68   y=34   width=13   height=26   xoffset=1    yoffset=7    xadvance=14   page=0    chnl=0 
char id=73      x=502  y=0    width=5    height=26   xoffset=1    yoffset=7    xadvance=6    page=0    chnl=0 
char id=74      x=81   y=34   width=12   height=26   xoffset=0    yoffset=7    xadvance=12   page=0    chnl=0 
char id=75      x=93   y=34   width=13   height=26   xoffset=1    yoffset=7    xadvance=12   page=0    chnl=0 
char id=76      x=106  y=34   width=10   height=26   xoffset=1    yoffset=7    xadvance=11   page=0    chnl=0 
char id=77      x=116  y=34   width=15   height=26   xoffset=1    yoffset=7    xadvance=16   page=0    chnl=0 
char id=78      x=131  y=34   width=13   height=26   xoffset=1    yoffset=7    xadvance=14   page=0    chnl=0 
char id=79      x=144  y=34   width=13   height=26   xoffset=1    yoffset=7    xadvance=14   page=0    chnl=0 
char id=80      x=157  y=34   width=12   height=26   xoffset=1    yoffset=7    xadvance=13   page=0    chnl=0 
char id=81      x=440  y=0    width=14   height=27   xoffset=1    yoffset=7    xadvance=15   page=0    chnl=0 
char id=82      x=169  y=34   width=13   height=26   xoffset=1    yoffset=7    xadvance=14   page=0    chnl=0 
char id=83      x=182  y=34   width=12   height=26   xoffset=1    yoffset=7    xadvance=14   page=0    chnl=0 
char id=84      x=194  y=34   width=12   height=26   xoffset=0    yoffset=7    xadvance=12   page=0    chnl=0 
char id=85      x=206  y=34   width=13   height=26   xoffset=1    yoffset=7    xadvance=14   page=0    chnl=0 
char id=86      x=219  y=34   width=14   height=26   xoffset=-1   yoffset=7    xadvance=12   page=0    chnl=0 
char id=87      x=233  y=34   width=19   height=26   xoffset=-1   yoffset=7    xadvance=17   page=0    chnl=0 
char id=88      x=252  y=34   width=14   height=26   xoffset=-1   yoffset=7    xadvance=12   page=0    chnl=0 
char id=89      x=266  y=34   width=14   height=26   xoffset=-1   yoffset=7    xadvance=12   page=0    chnl=0 
char id=90      x=280  y=34   width=12   height=26   xoffset=0    yoffset=7    xadvance=12   page=0    chnl=0 
char id=91      x=254  y=0    width=8    height=30   xoffset=1    yoffset=7    xadvance=9    page=0    chnl=0 
char id=92      x=0    y=60   width=16   height=26   xoffset=-1   yoffset=7    xadvance=14   page=0    chnl=0 
char id=93      x=262  y=0    width=9    height=30   xoffset=0    yoffset=7    xadvance=9    page=0    chnl=0 
char id=94      x=13   y=108  width=13   height=11   xoffset=0    yoffset=6    xadvance=13   page=0    chnl=0 
char id=95      x=118  y=108  width=14   height=4    xoffset=-1   yoffset=35   xadvance=12   page=0    chnl=0 
char id=96      x=82   y=108  width=8    height=6    xoffset=3    yoffset=11   xadvance=13   page=0    chnl=0 
char id=97      x=173  y=86   width=11   height=17   xoffset=1    yoffset=16   xadvance=13   page=0    chnl=0 
char id=98      x=292  y=34   width=11   height=26   xoffset=1    yoffset=7    xadvance=13   page=0    chnl=0 
char id=99      x=184  y=86   width=11   height=17   xoffset=1    yoffset=16   xadvance=12   page=0    chnl=0 
char id=100     x=303  y=34   width=11   height=26   xoffset=1    yoffset=7    xadvance=13   page=0    chnl=0 
char id=101     x=195  y=86   width=11   height=17   xoffset=1    yoffset=16   xadvance=12   page=0    chnl=0 
char id=102     x=314  y=34   width=9    height=26   xoffset=0    yoffset=7    xadvance=9    page=0    chnl=0 
char id=103     x=329  y=60   width=11   height=23   xoffset=1    yoffset=16   xadvance=12   page=0    chnl=0 
char id=104     x=323  y=34   width=11   height=26   xoffset=1    yoffset=7    xadvance=13   page=0    chnl=0 
char id=105     x=340  y=60   width=5    height=23   xoffset=1    yoffset=10   xadvance=6    page=0    chnl=0 
char id=106     x=405  y=0    width=8    height=29   xoffset=-2   yoffset=10   xadvance=6    page=0    chnl=0 
char id=107     x=334  y=34   width=11   height=26   xoffset=1    yoffset=7    xadvance=11   page=0    chnl=0 
char id=108     x=502  y=0    width=5    height=26   xoffset=1    yoffset=7    xadvance=6    page=0    chnl=0 
char id=109     x=206  y=86   width=18   height=17   xoffset=1    yoffset=16   xadvance=20   page=0    chnl=0 
char id=110     x=224  y=86   width=11   height=17   xoffset=1    yoffset=16   xadvance=13   page=0    chnl=0 
char id=111     x=235  y=86   width=11   height=17   xoffset=1    yoffset=16   xadvance=13   page=0    chnl=0 
char id=112     x=345  y=60   width=11   height=23   xoffset=1    yoffset=16   xadvance=13   page=0    chnl=0 
char id=113     x=356  y=60   width=11   height=23   xoffset=1    yoffset=16   xadvance=13   page=0    chnl=0 
char id=114     x=246  y=86   width=10   height=17   xoffset=1    yoffset=16   xadvance=11   page=0    chnl=0 
char id=115     x=256  y=86   width=11   height=17   xoffset=1    yoffset=16   xadvance=12   page=0    chnl=0 
char id=116     x=391  y=60   width=9    height=22   xoffset=0    yoffset=11   xadvance=9    page=0    chnl=0 
char id=117     x=267  y=86   width=11   height=17   xoffset=1    yoffset=16   xadvance=13   page=0    chnl=0 
char id=118     x=278  y=86   width=13   height=17   xoffset=-1   yoffset=16   xadvance=11   page=0    chnl=0 
char id=119     x=291  y=86   width=18   height=17   xoffset=-1   yoffset=16   xadvance=16   page=0    chnl=0 
char id=120     x=309  y=86   width=12   height=17   xoffset=-1   yoffset=16   xadvance=11   page=0    chnl=0 
char id=121     x=367  y=60   width=13   height=23   xoffset=-1   yoffset=16   xadvance=11   page=0    chnl=0 
char id=122     x=321  y=86   width=10   height=17   xoffset=0    yoffset=16   xadvance=10   page=0    chnl=0 
char id=123     x=271  y=0    width=11   height=30   xoffset=-1   yoffset=7    xadvance=10   page=0    chnl=0 
char id=124     x=5    y=0    width=5    height=32   xoffset=1    yoffset=7    xadvance=6    page=0    chnl=0 
char id=125     x=282  y=0    width=11   height=30   xoffset=0    yoffset=7    xadvance=11   page=0    chnl=0 
char id=126     x=69   y=108  width=13   height=7    xoffset=2    yoffset=19   xadvance=17   page=0    chnl=0 
char id=160     x=0    y=0    width=0    height=0    xoffset=-1   yoffset=31   xadvance=3    page=0    chnl=0 
char id=161     x=69   y=60   width=5    height=26   xoffset=1    yoffset=7    xadvance=6    page=0    chnl=0 
char id=162     x=74   y=60   width=11   height=26   xoffset=1    yoffset=7    xadvance=12   page=0    chnl=0 
char id=163     x=85   y=60   width=13   height=26   xoffset=0    yoffset=7    xadvance=14   page=0    chnl=0 
char id=164     x=331  y=86   width=17   height=17   xoffset=1    yoffset=12   xadvance=19   page=0    chnl=0 
char id=165     x=98   y=60   width=15   height=26   xoffset=-1   yoffset=7    xadvance=13   page=0    chnl=0 
char id=166     x=0    y=0    width=5    height=34   xoffset=1    yoffset=5    xadvance=6    page=0    chnl=0 
char id=167     x=113  y=60   width=12   height=26   xoffset=1    yoffset=7    xadvance=14   page=0    chnl=0 
char id=168     x=132  y=108  width=9    height=4    xoffset=2    yoffset=13   xadvance=12   page=0    chnl=0 
char id=169     x=454  y=0    width=17   height=27   xoffset=0    yoffset=7    xadvance=18   page=0    chnl=0 
char id=170     x=141  y=86   width=9    height=18   xoffset=1    yoffset=7    xadvance=11   page=0    chnl=0 
char id=171     x=403  y=86   width=14   height=14   xoffset=0    yoffset=16   xadvance=14   page=0    chnl=0 
char id=172     x=47   y=108  width=14   height=9    xoffset=1    yoffset=19   xadvance=15   page=0    chnl=0 
char id=173     x=141  y=108  width=13   height=4    xoffset=1    yoffset=19   xadvance=15   page=0    chnl=0 
char id=174     x=471  y=0    width=17   height=27   xoffset=0    yoffset=7    xadvance=18   page=0    chnl=0 
char id=175     x=154  y=108  width=9    height=4    xoffset=2    yoffset=12   xadvance=13   page=0    chnl=0 
char id=176     x=417  y=86   width=10   height=14   xoffset=0    yoffset=7    xadvance=10   page=0    chnl=0 
char id=177     x=390  y=86   width=13   height=15   xoffset=0    yoffset=15   xadvance=13   page=0    chnl=0 
char id=178     x=427  y=86   width=10   height=14   xoffset=0    yoffset=7    xadvance=10   page=0    chnl=0 
char id=179     x=437  y=86   width=10   height=14   xoffset=0    yoffset=7    xadvance=10   page=0    chnl=0 
char id=180     x=96   y=108  width=9    height=6    xoffset=1    yoffset=11   xadvance=13   page=0    chnl=0 
char id=181     x=307  y=60   width=11   height=24   xoffset=1    yoffset=15   xadvance=13   page=0    chnl=0 
char id=182     x=125  y=60   width=14   height=26   xoffset=0    yoffset=7    xadvance=14   page=0    chnl=0 
char id=183     x=105  y=108  width=5    height=5    xoffset=0    yoffset=20   xadvance=5    page=0    chnl=0 
char id=184     x=61   y=108  width=8    height=9    xoffset=3    yoffset=30   xadvance=14   page=0    chnl=0 
char id=185     x=447  y=86   width=6    height=14   xoffset=0    yoffset=7    xadvance=6    page=0    chnl=0 
char id=186     x=150  y=86   width=9    height=18   xoffset=1    yoffset=7    xadvance=11   page=0    chnl=0 
char id=187     x=453  y=86   width=15   height=14   xoffset=0    yoffset=16   xadvance=15   page=0    chnl=0 
char id=188     x=139  y=60   width=19   height=26   xoffset=-1   yoffset=7    xadvance=18   page=0    chnl=0 
char id=189     x=158  y=60   width=20   height=26   xoffset=-2   yoffset=7    xadvance=18   page=0    chnl=0 
char id=190     x=178  y=60   width=21   height=26   xoffset=0    yoffset=7    xadvance=21   page=0    chnl=0 
char id=191     x=199  y=60   width=12   height=26   xoffset=0    yoffset=7    xadvance=12   page=0    chnl=0 
char id=192     x=33   y=0    width=14   height=31   xoffset=-1   yoffset=2    xadvance=13   page=0    chnl=0 
char id=193     x=47   y=0    width=14   height=31   xoffset=-1   yoffset=2    xadvance=13   page=0    chnl=0 
char id=194     x=61   y=0    width=14   height=31   xoffset=-1   yoffset=2    xadvance=13   page=0    chnl=0 
char id=195     x=305  y=0    width=15   height=30   xoffset=-1   yoffset=3    xadvance=13   page=0    chnl=0 
char id=196     x=320  y=0    width=14   height=30   xoffset=-1   yoffset=3    xadvance=12   page=0    chnl=0 
char id=197     x=75   y=0    width=14   height=31   xoffset=-1   yoffset=2    xadvance=12   page=0    chnl=0 
char id=198     x=211  y=60   width=18   height=26   xoffset=-1   yoffset=7    xadvance=18   page=0    chnl=0 
char id=199     x=10   y=0    width=12   height=32   xoffset=1    yoffset=7    xadvance=14   page=0    chnl=0 
char id=200     x=89   y=0    width=10   height=31   xoffset=1    yoffset=2    xadvance=12   page=0    chnl=0 
char id=201     x=99   y=0    width=10   height=31   xoffset=1    yoffset=2    xadvance=12   page=0    chnl=0 
char id=202     x=109  y=0    width=10   height=31   xoffset=1    yoffset=2    xadvance=12   page=0    chnl=0 
char id=203     x=334  y=0    width=10   height=30   xoffset=1    yoffset=3    xadvance=12   page=0    chnl=0 
char id=204     x=119  y=0    width=8    height=31   xoffset=-2   yoffset=2    xadvance=6    page=0    chnl=0 
char id=205     x=127  y=0    width=8    height=31   xoffset=0    yoffset=2    xadvance=6    page=0    chnl=0 
char id=206     x=135  y=0    width=10   height=31   xoffset=-2   yoffset=2    xadvance=6    page=0    chnl=0 
char id=207     x=344  y=0    width=9    height=30   xoffset=0    yoffset=3    xadvance=8    page=0    chnl=0 
char id=208     x=229  y=60   width=14   height=26   xoffset=-1   yoffset=7    xadvance=14   page=0    chnl=0 
char id=209     x=353  y=0    width=13   height=30   xoffset=1    yoffset=3    xadvance=14   page=0    chnl=0 
char id=210     x=145  y=0    width=13   height=31   xoffset=1    yoffset=2    xadvance=14   page=0    chnl=0 
char id=211     x=158  y=0    width=13   height=31   xoffset=1    yoffset=2    xadvance=14   page=0    chnl=0 
char id=212     x=171  y=0    width=13   height=31   xoffset=1    yoffset=2    xadvance=14   page=0    chnl=0 
char id=213     x=366  y=0    width=13   height=30   xoffset=1    yoffset=3    xadvance=14   page=0    chnl=0 
char id=214     x=379  y=0    width=13   height=30   xoffset=1    yoffset=3    xadvance=14   page=0    chnl=0 
char id=215     x=481  y=86   width=12   height=13   xoffset=1    yoffset=15   xadvance=15   page=0    chnl=0 
char id=216     x=243  y=60   width=16   height=26   xoffset=-1   yoffset=7    xadvance=15   page=0    chnl=0 
char id=217     x=184  y=0    width=13   height=31   xoffset=1    yoffset=2    xadvance=14   page=0    chnl=0 
char id=218     x=197  y=0    width=13   height=31   xoffset=1    yoffset=2    xadvance=14   page=0    chnl=0 
char id=219     x=210  y=0    width=13   height=31   xoffset=1    yoffset=2    xadvance=14   page=0    chnl=0 
char id=220     x=392  y=0    width=13   height=30   xoffset=1    yoffset=3    xadvance=14   page=0    chnl=0 
char id=221     x=223  y=0    width=14   height=31   xoffset=-1   yoffset=2    xadvance=12   page=0    chnl=0 
char id=222     x=259  y=60   width=12   height=26   xoffset=1    yoffset=7    xadvance=13   page=0    chnl=0 
char id=223     x=271  y=60   width=11   height=26   xoffset=1    yoffset=7    xadvance=13   page=0    chnl=0 
char id=224     x=400  y=60   width=11   height=22   xoffset=1    yoffset=11   xadvance=13   page=0    chnl=0 
char id=225     x=411  y=60   width=11   height=22   xoffset=1    yoffset=11   xadvance=13   page=0    chnl=0 
char id=226     x=422  y=60   width=11   height=22   xoffset=1    yoffset=11   xadvance=13   page=0    chnl=0 
char id=227     x=55   y=86   width=11   height=21   xoffset=1    yoffset=12   xadvance=13   page=0    chnl=0 
char id=228     x=88   y=86   width=11   height=20   xoffset=1    yoffset=13   xadvance=13   page=0    chnl=0 
char id=229     x=318  y=60   width=11   height=24   xoffset=1    yoffset=9    xadvance=13   page=0    chnl=0 
char id=230     x=348  y=86   width=17   height=17   xoffset=1    yoffset=16   xadvance=19   page=0    chnl=0 
char id=231     x=380  y=60   width=11   height=23   xoffset=1    yoffset=16   xadvance=12   page=0    chnl=0 
char id=232     x=433  y=60   width=11   height=22   xoffset=1    yoffset=11   xadvance=12   page=0    chnl=0 
char id=233     x=444  y=60   width=11   height=22   xoffset=1    yoffset=11   xadvance=12   page=0    chnl=0 
char id=234     x=455  y=60   width=11   height=22   xoffset=1    yoffset=11   xadvance=12   page=0    chnl=0 
char id=235     x=99   y=86   width=11   height=20   xoffset=1    yoffset=13   xadvance=12   page=0    chnl=0 
char id=236     x=466  y=60   width=8    height=22   xoffset=-2   yoffset=11   xadvance=6    page=0    chnl=0 
char id=237     x=474  y=60   width=8    height=22   xoffset=0    yoffset=11   xadvance=6    page=0    chnl=0 
char id=238     x=482  y=60   width=10   height=22   xoffset=-2   yoffset=11   xadvance=6    page=0    chnl=0 
char id=239     x=110  y=86   width=9    height=20   xoffset=-1   yoffset=13   xadvance=6    page=0    chnl=0 
char id=240     x=282  y=60   width=13   height=26   xoffset=1    yoffset=7    xadvance=13   page=0    chnl=0 
char id=241     x=66   y=86   width=11   height=21   xoffset=1    yoffset=12   xadvance=13   page=0    chnl=0 
char id=242     x=492  y=60   width=11   height=22   xoffset=1    yoffset=11   xadvance=13   page=0    chnl=0 
char id=243     x=0    y=86   width=11   height=22   xoffset=1    yoffset=11   xadvance=13   page=0    chnl=0 
char id=244     x=11   y=86   width=11   height=22   xoffset=1    yoffset=11   xadvance=13   page=0    chnl=0 
char id=245     x=77   y=86   width=11   height=21   xoffset=1    yoffset=12   xadvance=13   page=0    chnl=0 
char id=246     x=119  y=86   width=11   height=20   xoffset=1    yoffset=13   xadvance=13   page=0    chnl=0 
char id=247     x=493  y=86   width=13   height=13   xoffset=0    yoffset=15   xadvance=13   page=0    chnl=0 
char id=248     x=159  y=86   width=14   height=18   xoffset=-1   yoffset=15   xadvance=13   page=0    chnl=0 
char id=249     x=22   y=86   width=11   height=22   xoffset=1    yoffset=11   xadvance=13   page=0    chnl=0 
char id=250     x=33   y=86   width=11   height=22   xoffset=1    yoffset=11   xadvance=13   page=0    chnl=0 
char id=251     x=44   y=86   width=11   height=22   xoffset=1    yoffset=11   xadvance=13   page=0    chnl=0 
char id=252     x=130  y=86   width=11   height=20   xoffset=1    yoffset=13   xadvance=13   page=0    chnl=0 
char id=253     x=427  y=0    width=13   height=28   xoffset=-1   yoffset=11   xadvance=11   page=0    chnl=0 
char id=254     x=22   y=0    width=11   height=32   xoffset=1    yoffset=7    xadvance=13   page=0    chnl=0 
char id=255     x=295  y=60   width=12   height=26   xoffset=-1   yoffset=13   xadvance=10   page=0    chnl=0 
kernings count=0
