info face="Bell MT" size=32 bold=0 italic=0 charset="" unicode=0 stretchH=100 smooth=1 aa=1 padding=1,1,1,1 spacing=-2,-2
common lineHeight=36 base=27 scaleW=512 scaleH=512 pages=1 packed=0
page id=0 file="BellMT.png"
chars count=97
char id=0       x=489  y=34   width=18   height=22   xoffset=3    yoffset=6    xadvance=24   page=0    chnl=0 
char id=10      x=489  y=34   width=18   height=22   xoffset=3    yoffset=6    xadvance=24   page=0    chnl=0 
char id=32      x=0    y=0    width=0    height=0    xoffset=-1   yoffset=26   xadvance=8    page=0    chnl=0 
char id=33      x=448  y=34   width=5    height=23   xoffset=1    yoffset=5    xadvance=6    page=0    chnl=0 
char id=34      x=0    y=80   width=11   height=12   xoffset=1    yoffset=4    xadvance=13   page=0    chnl=0 
char id=35      x=251  y=0    width=20   height=25   xoffset=0    yoffset=4    xadvance=20   page=0    chnl=0 
char id=36      x=140  y=0    width=16   height=27   xoffset=0    yoffset=5    xadvance=16   page=0    chnl=0 
char id=37      x=465  y=34   width=24   height=23   xoffset=0    yoffset=5    xadvance=24   page=0    chnl=0 
char id=38      x=0    y=57   width=23   height=23   xoffset=0    yoffset=5    xadvance=22   page=0    chnl=0 
char id=39      x=11   y=80   width=5    height=12   xoffset=0    yoffset=4    xadvance=5    page=0    chnl=0 
char id=40      x=25   y=0    width=10   height=33   xoffset=1    yoffset=4    xadvance=10   page=0    chnl=0 
char id=41      x=35   y=0    width=10   height=33   xoffset=0    yoffset=4    xadvance=10   page=0    chnl=0 
char id=42      x=471  y=57   width=15   height=16   xoffset=0    yoffset=4    xadvance=15   page=0    chnl=0 
char id=43      x=183  y=57   width=19   height=20   xoffset=1    yoffset=8    xadvance=21   page=0    chnl=0 
char id=44      x=35   y=80   width=7    height=10   xoffset=-1   yoffset=23   xadvance=6    page=0    chnl=0 
char id=45      x=74   y=80   width=12   height=5    xoffset=0    yoffset=17   xadvance=12   page=0    chnl=0 
char id=46      x=69   y=80   width=5    height=5    xoffset=1    yoffset=23   xadvance=6    page=0    chnl=0 
char id=47      x=156  y=0    width=16   height=26   xoffset=0    yoffset=3    xadvance=16   page=0    chnl=0 
char id=48      x=167  y=57   width=16   height=20   xoffset=0    yoffset=8    xadvance=16   page=0    chnl=0 
char id=49      x=63   y=57   width=11   height=21   xoffset=3    yoffset=7    xadvance=17   page=0    chnl=0 
char id=50      x=104  y=57   width=16   height=20   xoffset=0    yoffset=8    xadvance=16   page=0    chnl=0 
char id=51      x=120  y=57   width=15   height=20   xoffset=1    yoffset=8    xadvance=17   page=0    chnl=0 
char id=52      x=135  y=57   width=17   height=20   xoffset=-1   yoffset=8    xadvance=16   page=0    chnl=0 
char id=53      x=23   y=57   width=14   height=22   xoffset=1    yoffset=6    xadvance=16   page=0    chnl=0 
char id=54      x=152  y=57   width=15   height=20   xoffset=1    yoffset=8    xadvance=16   page=0    chnl=0 
char id=55      x=37   y=57   width=14   height=22   xoffset=1    yoffset=7    xadvance=16   page=0    chnl=0 
char id=56      x=74   y=57   width=15   height=21   xoffset=1    yoffset=7    xadvance=16   page=0    chnl=0 
char id=57      x=89   y=57   width=15   height=21   xoffset=0    yoffset=7    xadvance=16   page=0    chnl=0 
char id=58      x=486  y=57   width=5    height=14   xoffset=1    yoffset=14   xadvance=6    page=0    chnl=0 
char id=59      x=202  y=57   width=7    height=19   xoffset=0    yoffset=14   xadvance=7    page=0    chnl=0 
char id=60      x=209  y=57   width=19   height=19   xoffset=1    yoffset=9    xadvance=21   page=0    chnl=0 
char id=61      x=16   y=80   width=19   height=12   xoffset=1    yoffset=12   xadvance=21   page=0    chnl=0 
char id=62      x=228  y=57   width=19   height=19   xoffset=1    yoffset=9    xadvance=21   page=0    chnl=0 
char id=63      x=453  y=34   width=12   height=23   xoffset=1    yoffset=5    xadvance=14   page=0    chnl=0 
char id=64      x=86   y=0    width=31   height=33   xoffset=0    yoffset=3    xadvance=30   page=0    chnl=0 
char id=65      x=408  y=0    width=25   height=23   xoffset=-2   yoffset=5    xadvance=22   page=0    chnl=0 
char id=66      x=433  y=0    width=20   height=23   xoffset=-1   yoffset=5    xadvance=19   page=0    chnl=0 
char id=67      x=453  y=0    width=21   height=23   xoffset=1    yoffset=5    xadvance=21   page=0    chnl=0 
char id=68      x=474  y=0    width=25   height=23   xoffset=-1   yoffset=5    xadvance=24   page=0    chnl=0 
char id=69      x=0    y=34   width=22   height=23   xoffset=-1   yoffset=5    xadvance=21   page=0    chnl=0 
char id=70      x=22   y=34   width=21   height=23   xoffset=-1   yoffset=5    xadvance=20   page=0    chnl=0 
char id=71      x=43   y=34   width=25   height=23   xoffset=0    yoffset=5    xadvance=24   page=0    chnl=0 
char id=72      x=68   y=34   width=25   height=23   xoffset=0    yoffset=5    xadvance=24   page=0    chnl=0 
char id=73      x=499  y=0    width=11   height=23   xoffset=0    yoffset=5    xadvance=11   page=0    chnl=0 
char id=74      x=93   y=34   width=14   height=23   xoffset=0    yoffset=5    xadvance=13   page=0    chnl=0 
char id=75      x=271  y=0    width=22   height=24   xoffset=0    yoffset=5    xadvance=22   page=0    chnl=0 
char id=76      x=107  y=34   width=21   height=23   xoffset=-1   yoffset=5    xadvance=20   page=0    chnl=0 
char id=77      x=128  y=34   width=32   height=23   xoffset=-1   yoffset=5    xadvance=30   page=0    chnl=0 
char id=78      x=160  y=34   width=26   height=23   xoffset=-1   yoffset=5    xadvance=24   page=0    chnl=0 
char id=79      x=186  y=34   width=22   height=23   xoffset=0    yoffset=5    xadvance=22   page=0    chnl=0 
char id=80      x=208  y=34   width=19   height=23   xoffset=0    yoffset=5    xadvance=19   page=0    chnl=0 
char id=81      x=117  y=0    width=23   height=32   xoffset=0    yoffset=5    xadvance=23   page=0    chnl=0 
char id=82      x=227  y=34   width=24   height=23   xoffset=-1   yoffset=5    xadvance=21   page=0    chnl=0 
char id=83      x=251  y=34   width=16   height=23   xoffset=0    yoffset=5    xadvance=16   page=0    chnl=0 
char id=84      x=267  y=34   width=24   height=23   xoffset=0    yoffset=5    xadvance=23   page=0    chnl=0 
char id=85      x=291  y=34   width=26   height=23   xoffset=-1   yoffset=5    xadvance=25   page=0    chnl=0 
char id=86      x=317  y=34   width=24   height=23   xoffset=-1   yoffset=5    xadvance=21   page=0    chnl=0 
char id=87      x=341  y=34   width=36   height=23   xoffset=-1   yoffset=5    xadvance=33   page=0    chnl=0 
char id=88      x=377  y=34   width=25   height=23   xoffset=0    yoffset=5    xadvance=24   page=0    chnl=0 
char id=89      x=402  y=34   width=25   height=23   xoffset=-1   yoffset=5    xadvance=22   page=0    chnl=0 
char id=90      x=427  y=34   width=21   height=23   xoffset=0    yoffset=5    xadvance=20   page=0    chnl=0 
char id=91      x=0    y=0    width=15   height=34   xoffset=3    yoffset=3    xadvance=17   page=0    chnl=0 
char id=92      x=172  y=0    width=16   height=26   xoffset=0    yoffset=3    xadvance=16   page=0    chnl=0 
char id=93      x=45   y=0    width=15   height=33   xoffset=-1   yoffset=4    xadvance=17   page=0    chnl=0 
char id=94      x=491  y=57   width=17   height=14   xoffset=-1   yoffset=3    xadvance=15   page=0    chnl=0 
char id=95      x=86   y=80   width=18   height=4    xoffset=-1   yoffset=28   xadvance=16   page=0    chnl=0 
char id=96      x=42   y=80   width=8    height=9    xoffset=1    yoffset=4    xadvance=11   page=0    chnl=0 
char id=97      x=272  y=57   width=15   height=16   xoffset=0    yoffset=12   xadvance=14   page=0    chnl=0 
char id=98      x=188  y=0    width=17   height=25   xoffset=0    yoffset=3    xadvance=16   page=0    chnl=0 
char id=99      x=287  y=57   width=13   height=16   xoffset=0    yoffset=12   xadvance=13   page=0    chnl=0 
char id=100     x=293  y=0    width=17   height=24   xoffset=0    yoffset=4    xadvance=16   page=0    chnl=0 
char id=101     x=300  y=57   width=14   height=16   xoffset=0    yoffset=12   xadvance=14   page=0    chnl=0 
char id=102     x=310  y=0    width=15   height=24   xoffset=-1   yoffset=4    xadvance=9    page=0    chnl=0 
char id=103     x=205  y=0    width=18   height=25   xoffset=0    yoffset=12   xadvance=18   page=0    chnl=0 
char id=104     x=325  y=0    width=18   height=24   xoffset=-1   yoffset=4    xadvance=17   page=0    chnl=0 
char id=105     x=223  y=0    width=10   height=25   xoffset=-1   yoffset=4    xadvance=8    page=0    chnl=0 
char id=106     x=15   y=0    width=10   height=33   xoffset=-3   yoffset=4    xadvance=9    page=0    chnl=0 
char id=107     x=343  y=0    width=18   height=24   xoffset=-1   yoffset=4    xadvance=16   page=0    chnl=0 
char id=108     x=361  y=0    width=11   height=24   xoffset=-1   yoffset=4    xadvance=9    page=0    chnl=0 
char id=109     x=314  y=57   width=27   height=16   xoffset=-1   yoffset=12   xadvance=25   page=0    chnl=0 
char id=110     x=341  y=57   width=19   height=16   xoffset=-1   yoffset=12   xadvance=17   page=0    chnl=0 
char id=111     x=360  y=57   width=16   height=16   xoffset=0    yoffset=12   xadvance=16   page=0    chnl=0 
char id=112     x=372  y=0    width=18   height=24   xoffset=-1   yoffset=12   xadvance=16   page=0    chnl=0 
char id=113     x=390  y=0    width=18   height=24   xoffset=0    yoffset=12   xadvance=16   page=0    chnl=0 
char id=114     x=376  y=57   width=14   height=16   xoffset=-1   yoffset=12   xadvance=13   page=0    chnl=0 
char id=115     x=390  y=57   width=13   height=16   xoffset=0    yoffset=12   xadvance=13   page=0    chnl=0 
char id=116     x=51   y=57   width=12   height=21   xoffset=0    yoffset=7    xadvance=12   page=0    chnl=0 
char id=117     x=403  y=57   width=17   height=16   xoffset=0    yoffset=12   xadvance=17   page=0    chnl=0 
char id=118     x=420  y=57   width=18   height=16   xoffset=-1   yoffset=12   xadvance=16   page=0    chnl=0 
char id=119     x=247  y=57   width=25   height=17   xoffset=-1   yoffset=12   xadvance=23   page=0    chnl=0 
char id=120     x=438  y=57   width=19   height=16   xoffset=-1   yoffset=12   xadvance=17   page=0    chnl=0 
char id=121     x=233  y=0    width=18   height=25   xoffset=0    yoffset=12   xadvance=17   page=0    chnl=0 
char id=122     x=457  y=57   width=14   height=16   xoffset=1    yoffset=12   xadvance=15   page=0    chnl=0 
char id=123     x=60   y=0    width=11   height=33   xoffset=3    yoffset=4    xadvance=15   page=0    chnl=0 
char id=124     x=82   y=0    width=4    height=33   xoffset=5    yoffset=4    xadvance=15   page=0    chnl=0 
char id=125     x=71   y=0    width=11   height=33   xoffset=2    yoffset=4    xadvance=16   page=0    chnl=0 
char id=126     x=50   y=80   width=19   height=7    xoffset=1    yoffset=15   xadvance=21   page=0    chnl=0 
kernings count=227
kerning first=70 second=46 amount=-5
kerning first=79 second=86 amount=-2
kerning first=86 second=79 amount=-2
kerning first=121 second=99 amount=-1
kerning first=88 second=71 amount=-1
kerning first=89 second=67 amount=-1
kerning first=121 second=44 amount=-4
kerning first=65 second=79 amount=-1
kerning first=79 second=65 amount=-2
kerning first=86 second=58 amount=-3
kerning first=89 second=101 amount=-4
kerning first=89 second=46 amount=-5
kerning first=84 second=45 amount=-3
kerning first=79 second=44 amount=-3
kerning first=82 second=87 amount=-2
kerning first=103 second=121 amount=1
kerning first=68 second=46 amount=-2
kerning first=119 second=99 amount=-1
kerning first=82 second=121 amount=-1
kerning first=86 second=71 amount=-1
kerning first=87 second=67 amount=-1
kerning first=119 second=44 amount=-3
kerning first=89 second=59 amount=-3
kerning first=65 second=71 amount=-1
kerning first=74 second=111 amount=-1
kerning first=84 second=58 amount=-2
kerning first=87 second=101 amount=-3
kerning first=98 second=44 amount=-1
kerning first=87 second=46 amount=-5
kerning first=112 second=119 amount=-1
kerning first=82 second=79 amount=-1
kerning first=97 second=116 amount=-1
kerning first=65 second=84 amount=-2
kerning first=87 second=114 amount=-2
kerning first=87 second=59 amount=-2
kerning first=65 second=118 amount=-2
kerning first=86 second=97 amount=-2
kerning first=85 second=46 amount=-3
kerning first=120 second=100 amount=-1
kerning first=82 second=71 amount=-1
kerning first=115 second=44 amount=-1
kerning first=70 second=111 amount=-2
kerning first=84 second=97 amount=-1
kerning first=102 second=33 amount=4
kerning first=114 second=116 amount=1
kerning first=108 second=119 amount=-1
kerning first=82 second=84 amount=-1
kerning first=76 second=87 amount=-4
kerning first=97 second=121 amount=-1
kerning first=65 second=89 amount=-3
kerning first=66 second=85 amount=-1
kerning first=118 second=100 amount=-1
kerning first=76 second=121 amount=-1
kerning first=82 second=118 amount=-1
kerning first=89 second=111 amount=-4
kerning first=103 second=97 amount=-1
kerning first=81 second=46 amount=-2
kerning first=111 second=120 amount=-1
kerning first=79 second=88 amount=-2
kerning first=71 second=44 amount=-2
kerning first=86 second=81 amount=-1
kerning first=118 second=113 amount=-1
kerning first=76 second=79 amount=-1
kerning first=121 second=46 amount=-4
kerning first=121 second=101 amount=-1
kerning first=65 second=81 amount=-1
kerning first=74 second=121 amount=-1
kerning first=87 second=111 amount=-3
kerning first=111 second=44 amount=-1
kerning first=80 second=97 amount=-1
kerning first=114 second=121 amount=1
kerning first=79 second=46 amount=-3
kerning first=82 second=89 amount=-2
kerning first=119 second=46 amount=-3
kerning first=84 second=115 amount=-2
kerning first=76 second=71 amount=-1
kerning first=98 second=46 amount=-1
kerning first=70 second=108 amount=1
kerning first=74 second=58 amount=-1
kerning first=112 second=121 amount=-1
kerning first=81 second=85 amount=-1
kerning first=76 second=84 amount=-2
kerning first=82 second=81 amount=-1
kerning first=65 second=86 amount=-3
kerning first=97 second=118 amount=-1
kerning first=86 second=65 amount=-3
kerning first=75 second=67 amount=-1
kerning first=86 second=44 amount=-6
kerning first=68 second=87 amount=-1
kerning first=115 second=46 amount=-1
kerning first=84 second=65 amount=-2
kerning first=89 second=100 amount=-4
kerning first=84 second=99 amount=-2
kerning first=89 second=45 amount=-4
kerning first=114 second=118 amount=1
kerning first=74 second=97 amount=-1
kerning first=84 second=44 amount=-4
kerning first=108 second=121 amount=-1
kerning first=82 second=86 amount=-2
kerning first=76 second=89 amount=-2
kerning first=89 second=79 amount=-1
kerning first=87 second=121 amount=-2
kerning first=121 second=111 amount=-1
kerning first=89 second=113 amount=-3
kerning first=89 second=58 amount=-3
kerning first=103 second=44 amount=-1
kerning first=87 second=100 amount=-4
kerning first=87 second=45 amount=-2
kerning first=71 second=46 amount=-2
kerning first=87 second=79 amount=-2
kerning first=101 second=120 amount=1
kerning first=89 second=71 amount=-1
kerning first=86 second=117 amount=-2
kerning first=114 second=110 amount=1
kerning first=121 second=103 amount=-1
kerning first=75 second=119 amount=-1
kerning first=111 second=46 amount=-1
kerning first=80 second=65 amount=-3
kerning first=87 second=58 amount=-2
kerning first=115 second=119 amount=-1
kerning first=70 second=97 amount=-1
kerning first=80 second=44 amount=-5
kerning first=89 second=118 amount=-2
kerning first=87 second=71 amount=-1
kerning first=88 second=67 amount=-1
kerning first=102 second=108 amount=-1
kerning first=78 second=65 amount=-1
kerning first=99 second=44 amount=-1
kerning first=89 second=97 amount=-3
kerning first=102 second=32 amount=7
kerning first=78 second=44 amount=-1
kerning first=81 second=87 amount=-2
kerning first=67 second=46 amount=-1
kerning first=76 second=86 amount=-2
kerning first=118 second=99 amount=-1
kerning first=82 second=117 amount=-1
kerning first=86 second=67 amount=-1
kerning first=107 second=101 amount=-1
kerning first=118 second=44 amount=-4
kerning first=86 second=101 amount=-2
kerning first=65 second=67 amount=-1
kerning first=87 second=97 amount=-3
kerning first=86 second=46 amount=-6
kerning first=79 second=87 amount=-2
kerning first=68 second=89 amount=-2
kerning first=121 second=100 amount=-1
kerning first=84 second=122 amount=-1
kerning first=98 second=108 amount=-1
kerning first=86 second=114 amount=-1
kerning first=86 second=59 amount=-3
kerning first=74 second=65 amount=-1
kerning first=84 second=101 amount=-2
kerning first=84 second=46 amount=-4
kerning first=74 second=44 amount=-3
kerning first=119 second=100 amount=-1
kerning first=82 second=67 amount=-1
kerning first=114 second=44 amount=-2
kerning first=84 second=59 amount=-2
kerning first=103 second=46 amount=-1
kerning first=82 second=101 amount=-1
kerning first=101 second=122 amount=1
kerning first=81 second=84 amount=-1
kerning first=103 second=114 amount=1
kerning first=102 second=63 amount=4
kerning first=65 second=85 amount=-1
kerning first=75 second=121 amount=-1
kerning first=112 second=44 amount=-1
kerning first=65 second=119 amount=-2
kerning first=70 second=65 amount=-3
kerning first=80 second=101 amount=-2
kerning first=80 second=46 amount=-5
kerning first=70 second=44 amount=-5
kerning first=107 second=111 amount=-1
kerning first=121 second=97 amount=-1
kerning first=68 second=86 amount=-1
kerning first=75 second=79 amount=-1
kerning first=84 second=119 amount=-1
kerning first=89 second=65 amount=-3
kerning first=86 second=111 amount=-2
kerning first=74 second=117 amount=-1
kerning first=99 second=46 amount=-1
kerning first=68 second=65 amount=-1
kerning first=89 second=44 amount=-5
kerning first=78 second=46 amount=-1
kerning first=81 second=89 amount=-2
kerning first=82 second=85 amount=-2
kerning first=68 second=44 amount=-2
kerning first=98 second=118 amount=-1
kerning first=82 second=119 amount=-1
kerning first=89 second=112 amount=-1
kerning first=87 second=65 amount=-3
kerning first=75 second=71 amount=-1
kerning first=84 second=111 amount=-2
kerning first=76 second=67 amount=-1
kerning first=118 second=46 amount=-4
kerning first=118 second=101 amount=-1
kerning first=87 second=44 amount=-5
kerning first=79 second=89 amount=-3
kerning first=114 second=109 amount=1
kerning first=85 second=65 amount=-2
kerning first=75 second=118 amount=-1
kerning first=82 second=111 amount=-1
kerning first=74 second=101 amount=-1
kerning first=85 second=44 amount=-3
kerning first=74 second=46 amount=-3
kerning first=89 second=117 amount=-3
kerning first=102 second=107 amount=-1
kerning first=114 second=46 amount=-2
kerning first=80 second=111 amount=-2
kerning first=87 second=104 amount=1
kerning first=74 second=59 amount=-1
kerning first=120 second=111 amount=-1
kerning first=81 second=86 amount=-2
kerning first=88 second=79 amount=-1
kerning first=76 second=85 amount=-1
kerning first=86 second=121 amount=-2
kerning first=87 second=117 amount=-2
kerning first=65 second=87 amount=-4
kerning first=97 second=119 amount=-1
kerning first=76 second=119 amount=-1
kerning first=81 second=65 amount=-2
kerning first=112 second=46 amount=-1
kerning first=65 second=121 amount=-1
kerning first=86 second=45 amount=-4
kerning first=70 second=101 amount=-2
kerning first=111 second=118 amount=-1
kerning first=118 second=111 amount=-1
