info face="Comic Sans MS" size=32 bold=0 italic=0 charset="" unicode=0 stretchH=100 smooth=1 aa=1 padding=1,1,1,1 spacing=-2,-2
common lineHeight=46 base=36 scaleW=512 scaleH=256 pages=1 packed=0
page id=0 file="ComicSansMS.png"
chars count=193
char id=0       x=33   y=106  width=14   height=28   xoffset=1    yoffset=9    xadvance=16   page=0    chnl=0 
char id=10      x=33   y=106  width=14   height=28   xoffset=1    yoffset=9    xadvance=16   page=0    chnl=0 
char id=32      x=0    y=0    width=0    height=0    xoffset=-1   yoffset=35   xadvance=10   page=0    chnl=0 
char id=33      x=223  y=106  width=5    height=28   xoffset=1    yoffset=10   xadvance=7    page=0    chnl=0 
char id=34      x=54   y=185  width=12   height=12   xoffset=1    yoffset=10   xadvance=14   page=0    chnl=0 
char id=35      x=228  y=106  width=28   height=28   xoffset=0    yoffset=10   xadvance=28   page=0    chnl=0 
char id=36      x=303  y=0    width=19   height=36   xoffset=1    yoffset=8    xadvance=22   page=0    chnl=0 
char id=37      x=234  y=76   width=25   height=29   xoffset=1    yoffset=9    xadvance=26   page=0    chnl=0 
char id=38      x=259  y=76   width=21   height=29   xoffset=0    yoffset=10   xadvance=21   page=0    chnl=0 
char id=39      x=506  y=134  width=5    height=10   xoffset=4    yoffset=9    xadvance=13   page=0    chnl=0 
char id=40      x=438  y=0    width=11   height=35   xoffset=1    yoffset=10   xadvance=12   page=0    chnl=0 
char id=41      x=449  y=0    width=11   height=35   xoffset=1    yoffset=10   xadvance=12   page=0    chnl=0 
char id=42      x=460  y=161  width=16   height=15   xoffset=0    yoffset=10   xadvance=17   page=0    chnl=0 
char id=43      x=430  y=161  width=16   height=15   xoffset=0    yoffset=18   xadvance=16   page=0    chnl=0 
char id=44      x=127  y=185  width=7    height=10   xoffset=2    yoffset=32   xadvance=9    page=0    chnl=0 
char id=45      x=186  y=185  width=12   height=5    xoffset=1    yoffset=25   xadvance=13   page=0    chnl=0 
char id=46      x=143  y=185  width=6    height=6    xoffset=1    yoffset=32   xadvance=8    page=0    chnl=0 
char id=47      x=405  y=41   width=16   height=30   xoffset=0    yoffset=8    xadvance=16   page=0    chnl=0 
char id=48      x=204  y=106  width=19   height=28   xoffset=0    yoffset=10   xadvance=19   page=0    chnl=0 
char id=49      x=86   y=134  width=12   height=27   xoffset=1    yoffset=10   xadvance=14   page=0    chnl=0 
char id=50      x=98   y=134  width=17   height=27   xoffset=2    yoffset=11   xadvance=20   page=0    chnl=0 
char id=51      x=115  y=134  width=17   height=27   xoffset=1    yoffset=11   xadvance=20   page=0    chnl=0 
char id=52      x=166  y=106  width=20   height=28   xoffset=0    yoffset=10   xadvance=20   page=0    chnl=0 
char id=53      x=132  y=134  width=18   height=27   xoffset=1    yoffset=11   xadvance=20   page=0    chnl=0 
char id=54      x=186  y=106  width=18   height=28   xoffset=1    yoffset=10   xadvance=20   page=0    chnl=0 
char id=55      x=150  y=134  width=20   height=27   xoffset=0    yoffset=11   xadvance=20   page=0    chnl=0 
char id=56      x=170  y=134  width=18   height=27   xoffset=1    yoffset=11   xadvance=20   page=0    chnl=0 
char id=57      x=201  y=76   width=18   height=29   xoffset=1    yoffset=11   xadvance=19   page=0    chnl=0 
char id=58      x=334  y=161  width=6    height=18   xoffset=1    yoffset=17   xadvance=9    page=0    chnl=0 
char id=59      x=499  y=134  width=7    height=23   xoffset=0    yoffset=17   xadvance=9    page=0    chnl=0 
char id=60      x=369  y=161  width=12   height=16   xoffset=0    yoffset=18   xadvance=13   page=0    chnl=0 
char id=61      x=446  y=161  width=14   height=15   xoffset=1    yoffset=18   xadvance=17   page=0    chnl=0 
char id=62      x=356  y=161  width=13   height=17   xoffset=0    yoffset=17   xadvance=12   page=0    chnl=0 
char id=63      x=188  y=134  width=17   height=27   xoffset=-1   yoffset=11   xadvance=17   page=0    chnl=0 
char id=64      x=309  y=41   width=28   height=31   xoffset=1    yoffset=8    xadvance=30   page=0    chnl=0 
char id=65      x=346  y=134  width=21   height=26   xoffset=1    yoffset=12   xadvance=23   page=0    chnl=0 
char id=66      x=323  y=76   width=17   height=28   xoffset=2    yoffset=10   xadvance=19   page=0    chnl=0 
char id=67      x=356  y=106  width=20   height=27   xoffset=0    yoffset=11   xadvance=19   page=0    chnl=0 
char id=68      x=340  y=76   width=20   height=28   xoffset=2    yoffset=11   xadvance=23   page=0    chnl=0 
char id=69      x=386  y=41   width=19   height=30   xoffset=1    yoffset=10   xadvance=20   page=0    chnl=0 
char id=70      x=149  y=76   width=18   height=29   xoffset=2    yoffset=10   xadvance=20   page=0    chnl=0 
char id=71      x=360  y=76   width=22   height=28   xoffset=0    yoffset=10   xadvance=22   page=0    chnl=0 
char id=72      x=382  y=76   width=23   height=28   xoffset=1    yoffset=10   xadvance=24   page=0    chnl=0 
char id=73      x=376  y=106  width=17   height=27   xoffset=0    yoffset=11   xadvance=17   page=0    chnl=0 
char id=74      x=405  y=76   width=21   height=28   xoffset=0    yoffset=11   xadvance=21   page=0    chnl=0 
char id=75      x=426  y=76   width=18   height=28   xoffset=3    yoffset=11   xadvance=21   page=0    chnl=0 
char id=76      x=167  y=76   width=17   height=29   xoffset=1    yoffset=11   xadvance=18   page=0    chnl=0 
char id=77      x=393  y=106  width=27   height=27   xoffset=1    yoffset=11   xadvance=28   page=0    chnl=0 
char id=78      x=444  y=76   width=25   height=28   xoffset=0    yoffset=10   xadvance=25   page=0    chnl=0 
char id=79      x=420  y=106  width=24   height=27   xoffset=1    yoffset=11   xadvance=25   page=0    chnl=0 
char id=80      x=469  y=76   width=16   height=28   xoffset=1    yoffset=10   xadvance=17   page=0    chnl=0 
char id=81      x=102  y=41   width=28   height=34   xoffset=0    yoffset=11   xadvance=28   page=0    chnl=0 
char id=82      x=485  y=76   width=20   height=28   xoffset=1    yoffset=10   xadvance=20   page=0    chnl=0 
char id=83      x=444  y=106  width=20   height=27   xoffset=1    yoffset=11   xadvance=22   page=0    chnl=0 
char id=84      x=464  y=106  width=23   height=27   xoffset=1    yoffset=11   xadvance=22   page=0    chnl=0 
char id=85      x=487  y=106  width=21   height=27   xoffset=2    yoffset=11   xadvance=24   page=0    chnl=0 
char id=86      x=0    y=134  width=20   height=27   xoffset=1    yoffset=11   xadvance=21   page=0    chnl=0 
char id=87      x=0    y=106  width=33   height=28   xoffset=1    yoffset=11   xadvance=34   page=0    chnl=0 
char id=88      x=20   y=134  width=23   height=27   xoffset=0    yoffset=11   xadvance=23   page=0    chnl=0 
char id=89      x=43   y=134  width=21   height=27   xoffset=0    yoffset=11   xadvance=21   page=0    chnl=0 
char id=90      x=64   y=134  width=22   height=27   xoffset=0    yoffset=11   xadvance=22   page=0    chnl=0 
char id=91      x=148  y=41   width=10   height=33   xoffset=2    yoffset=11   xadvance=12   page=0    chnl=0 
char id=92      x=219  y=76   width=15   height=29   xoffset=2    yoffset=11   xadvance=18   page=0    chnl=0 
char id=93      x=158  y=41   width=10   height=33   xoffset=2    yoffset=11   xadvance=12   page=0    chnl=0 
char id=94      x=66   y=185  width=15   height=11   xoffset=2    yoffset=8    xadvance=19   page=0    chnl=0 
char id=95      x=149  y=185  width=23   height=6    xoffset=-1   yoffset=36   xadvance=21   page=0    chnl=0 
char id=96      x=501  y=161  width=9    height=10   xoffset=1    yoffset=8    xadvance=17   page=0    chnl=0 
char id=97      x=102  y=161  width=17   height=20   xoffset=0    yoffset=18   xadvance=17   page=0    chnl=0 
char id=98      x=47   y=106  width=17   height=28   xoffset=1    yoffset=10   xadvance=19   page=0    chnl=0 
char id=99      x=119  y=161  width=16   height=20   xoffset=1    yoffset=18   xadvance=17   page=0    chnl=0 
char id=100     x=64   y=106  width=18   height=28   xoffset=1    yoffset=10   xadvance=19   page=0    chnl=0 
char id=101     x=135  y=161  width=18   height=20   xoffset=0    yoffset=18   xadvance=18   page=0    chnl=0 
char id=102     x=293  y=41   width=16   height=31   xoffset=0    yoffset=10   xadvance=16   page=0    chnl=0 
char id=103     x=82   y=106  width=17   height=28   xoffset=0    yoffset=18   xadvance=17   page=0    chnl=0 
char id=104     x=99   y=106  width=17   height=28   xoffset=1    yoffset=10   xadvance=19   page=0    chnl=0 
char id=105     x=385  y=134  width=6    height=25   xoffset=2    yoffset=11   xadvance=9    page=0    chnl=0 
char id=106     x=426  y=0    width=12   height=35   xoffset=-2   yoffset=11   xadvance=12   page=0    chnl=0 
char id=107     x=116  y=106  width=16   height=28   xoffset=2    yoffset=10   xadvance=18   page=0    chnl=0 
char id=108     x=505  y=76   width=5    height=28   xoffset=2    yoffset=10   xadvance=9    page=0    chnl=0 
char id=109     x=24   y=161  width=24   height=22   xoffset=1    yoffset=17   xadvance=25   page=0    chnl=0 
char id=110     x=153  y=161  width=16   height=20   xoffset=1    yoffset=18   xadvance=17   page=0    chnl=0 
char id=111     x=169  y=161  width=16   height=20   xoffset=0    yoffset=18   xadvance=17   page=0    chnl=0 
char id=112     x=184  y=76   width=17   height=29   xoffset=0    yoffset=17   xadvance=17   page=0    chnl=0 
char id=113     x=132  y=106  width=16   height=28   xoffset=0    yoffset=18   xadvance=17   page=0    chnl=0 
char id=114     x=185  y=161  width=14   height=20   xoffset=1    yoffset=18   xadvance=15   page=0    chnl=0 
char id=115     x=48   y=161  width=17   height=21   xoffset=-1   yoffset=17   xadvance=16   page=0    chnl=0 
char id=116     x=391  y=134  width=15   height=25   xoffset=0    yoffset=13   xadvance=15   page=0    chnl=0 
char id=117     x=199  y=161  width=15   height=20   xoffset=1    yoffset=18   xadvance=17   page=0    chnl=0 
char id=118     x=214  y=161  width=16   height=20   xoffset=0    yoffset=18   xadvance=16   page=0    chnl=0 
char id=119     x=230  y=161  width=22   height=20   xoffset=0    yoffset=18   xadvance=22   page=0    chnl=0 
char id=120     x=252  y=161  width=19   height=20   xoffset=0    yoffset=18   xadvance=19   page=0    chnl=0 
char id=121     x=148  y=106  width=18   height=28   xoffset=-1   yoffset=18   xadvance=17   page=0    chnl=0 
char id=122     x=271  y=161  width=16   height=20   xoffset=1    yoffset=18   xadvance=17   page=0    chnl=0 
char id=123     x=460  y=0    width=13   height=35   xoffset=-1   yoffset=8    xadvance=12   page=0    chnl=0 
char id=124     x=486  y=0    width=5    height=35   xoffset=5    yoffset=8    xadvance=14   page=0    chnl=0 
char id=125     x=473  y=0    width=13   height=35   xoffset=0    yoffset=8    xadvance=13   page=0    chnl=0 
char id=126     x=81   y=185  width=19   height=11   xoffset=1    yoffset=19   xadvance=20   page=0    chnl=0 
char id=160     x=0    y=0    width=0    height=0    xoffset=-1   yoffset=35   xadvance=10   page=0    chnl=0 
char id=161     x=256  y=106  width=5    height=28   xoffset=1    yoffset=10   xadvance=7    page=0    chnl=0 
char id=162     x=280  y=76   width=18   height=29   xoffset=1    yoffset=7    xadvance=20   page=0    chnl=0 
char id=163     x=421  y=41   width=24   height=30   xoffset=0    yoffset=10   xadvance=26   page=0    chnl=0 
char id=164     x=65   y=161  width=21   height=21   xoffset=0    yoffset=13   xadvance=20   page=0    chnl=0 
char id=165     x=367  y=134  width=18   height=26   xoffset=1    yoffset=12   xadvance=20   page=0    chnl=0 
char id=166     x=445  y=41   width=5    height=30   xoffset=4    yoffset=8    xadvance=13   page=0    chnl=0 
char id=167     x=337  y=41   width=17   height=31   xoffset=1    yoffset=7    xadvance=20   page=0    chnl=0 
char id=168     x=172  y=185  width=14   height=6    xoffset=2    yoffset=12   xadvance=18   page=0    chnl=0 
char id=169     x=0    y=161  width=24   height=24   xoffset=0    yoffset=9    xadvance=25   page=0    chnl=0 
char id=170     x=0    y=185  width=15   height=14   xoffset=1    yoffset=9    xadvance=17   page=0    chnl=0 
char id=171     x=381  y=161  width=19   height=16   xoffset=0    yoffset=18   xadvance=19   page=0    chnl=0 
char id=172     x=100  y=185  width=16   height=11   xoffset=-1   yoffset=22   xadvance=15   page=0    chnl=0 
char id=173     x=186  y=185  width=12   height=5    xoffset=1    yoffset=25   xadvance=13   page=0    chnl=0 
char id=174     x=406  y=134  width=25   height=25   xoffset=0    yoffset=9    xadvance=25   page=0    chnl=0 
char id=175     x=149  y=185  width=23   height=6    xoffset=-1   yoffset=4    xadvance=21   page=0    chnl=0 
char id=176     x=15   y=185  width=13   height=14   xoffset=0    yoffset=7    xadvance=13   page=0    chnl=0 
char id=177     x=86   y=161  width=16   height=21   xoffset=0    yoffset=18   xadvance=16   page=0    chnl=0 
char id=178     x=400  y=161  width=11   height=16   xoffset=5    yoffset=7    xadvance=20   page=0    chnl=0 
char id=179     x=476  y=161  width=11   height=15   xoffset=5    yoffset=9    xadvance=21   page=0    chnl=0 
char id=180     x=134  y=185  width=9    height=10   xoffset=2    yoffset=8    xadvance=17   page=0    chnl=0 
char id=181     x=431  y=134  width=20   height=25   xoffset=0    yoffset=18   xadvance=17   page=0    chnl=0 
char id=182     x=229  y=41   width=22   height=32   xoffset=0    yoffset=8    xadvance=22   page=0    chnl=0 
char id=183     x=143  y=185  width=6    height=6    xoffset=1    yoffset=22   xadvance=8    page=0    chnl=0 
char id=184     x=116  y=185  width=11   height=11   xoffset=4    yoffset=33   xadvance=18   page=0    chnl=0 
char id=185     x=28   y=185  width=11   height=14   xoffset=5    yoffset=9    xadvance=21   page=0    chnl=0 
char id=186     x=39   y=185  width=15   height=14   xoffset=0    yoffset=9    xadvance=15   page=0    chnl=0 
char id=187     x=411  y=161  width=19   height=16   xoffset=0    yoffset=18   xadvance=19   page=0    chnl=0 
char id=188     x=491  y=0    width=18   height=35   xoffset=2    yoffset=7    xadvance=21   page=0    chnl=0 
char id=189     x=322  y=0    width=18   height=36   xoffset=2    yoffset=7    xadvance=21   page=0    chnl=0 
char id=190     x=0    y=41   width=18   height=35   xoffset=2    yoffset=7    xadvance=21   page=0    chnl=0 
char id=191     x=205  y=134  width=16   height=27   xoffset=0    yoffset=11   xadvance=17   page=0    chnl=0 
char id=192     x=113  y=0    width=21   height=37   xoffset=1    yoffset=1    xadvance=23   page=0    chnl=0 
char id=193     x=340  y=0    width=21   height=36   xoffset=1    yoffset=2    xadvance=23   page=0    chnl=0 
char id=194     x=361  y=0    width=21   height=36   xoffset=1    yoffset=2    xadvance=23   page=0    chnl=0 
char id=195     x=18   y=41   width=23   height=35   xoffset=1    yoffset=3    xadvance=23   page=0    chnl=0 
char id=196     x=251  y=41   width=21   height=32   xoffset=1    yoffset=6    xadvance=23   page=0    chnl=0 
char id=197     x=41   y=41   width=21   height=35   xoffset=1    yoffset=3    xadvance=23   page=0    chnl=0 
char id=198     x=261  y=106  width=36   height=28   xoffset=0    yoffset=10   xadvance=35   page=0    chnl=0 
char id=199     x=168  y=41   width=20   height=33   xoffset=0    yoffset=11   xadvance=19   page=0    chnl=0 
char id=200     x=0    y=0    width=19   height=41   xoffset=1    yoffset=-1   xadvance=20   page=0    chnl=0 
char id=201     x=19   y=0    width=19   height=41   xoffset=1    yoffset=-1   xadvance=20   page=0    chnl=0 
char id=202     x=38   y=0    width=19   height=41   xoffset=1    yoffset=-1   xadvance=20   page=0    chnl=0 
char id=203     x=382  y=0    width=19   height=36   xoffset=1    yoffset=4    xadvance=20   page=0    chnl=0 
char id=204     x=134  y=0    width=17   height=37   xoffset=0    yoffset=1    xadvance=17   page=0    chnl=0 
char id=205     x=151  y=0    width=17   height=37   xoffset=0    yoffset=1    xadvance=17   page=0    chnl=0 
char id=206     x=78   y=0    width=17   height=38   xoffset=0    yoffset=0    xadvance=17   page=0    chnl=0 
char id=207     x=188  y=41   width=17   height=33   xoffset=0    yoffset=5    xadvance=17   page=0    chnl=0 
char id=208     x=297  y=106  width=24   height=28   xoffset=-2   yoffset=11   xadvance=23   page=0    chnl=0 
char id=209     x=401  y=0    width=25   height=36   xoffset=0    yoffset=2    xadvance=25   page=0    chnl=0 
char id=210     x=168  y=0    width=24   height=37   xoffset=1    yoffset=1    xadvance=25   page=0    chnl=0 
char id=211     x=192  y=0    width=24   height=37   xoffset=1    yoffset=1    xadvance=25   page=0    chnl=0 
char id=212     x=216  y=0    width=24   height=37   xoffset=1    yoffset=1    xadvance=25   page=0    chnl=0 
char id=213     x=62   y=41   width=24   height=35   xoffset=1    yoffset=3    xadvance=25   page=0    chnl=0 
char id=214     x=205  y=41   width=24   height=33   xoffset=1    yoffset=5    xadvance=25   page=0    chnl=0 
char id=215     x=487  y=161  width=14   height=15   xoffset=0    yoffset=18   xadvance=15   page=0    chnl=0 
char id=216     x=221  y=134  width=27   height=27   xoffset=0    yoffset=11   xadvance=26   page=0    chnl=0 
char id=217     x=240  y=0    width=21   height=37   xoffset=2    yoffset=1    xadvance=24   page=0    chnl=0 
char id=218     x=261  y=0    width=21   height=37   xoffset=2    yoffset=1    xadvance=24   page=0    chnl=0 
char id=219     x=282  y=0    width=21   height=37   xoffset=2    yoffset=1    xadvance=24   page=0    chnl=0 
char id=220     x=272  y=41   width=21   height=32   xoffset=2    yoffset=6    xadvance=24   page=0    chnl=0 
char id=221     x=57   y=0    width=21   height=39   xoffset=0    yoffset=-1   xadvance=21   page=0    chnl=0 
char id=222     x=248  y=134  width=16   height=27   xoffset=1    yoffset=10   xadvance=17   page=0    chnl=0 
char id=223     x=450  y=41   width=16   height=30   xoffset=-1   yoffset=10   xadvance=14   page=0    chnl=0 
char id=224     x=466  y=41   width=17   height=30   xoffset=0    yoffset=8    xadvance=17   page=0    chnl=0 
char id=225     x=483  y=41   width=17   height=30   xoffset=0    yoffset=8    xadvance=17   page=0    chnl=0 
char id=226     x=0    y=76   width=17   height=30   xoffset=0    yoffset=8    xadvance=17   page=0    chnl=0 
char id=227     x=264  y=134  width=18   height=27   xoffset=0    yoffset=11   xadvance=16   page=0    chnl=0 
char id=228     x=451  y=134  width=17   height=25   xoffset=0    yoffset=13   xadvance=17   page=0    chnl=0 
char id=229     x=354  y=41   width=17   height=31   xoffset=0    yoffset=7    xadvance=17   page=0    chnl=0 
char id=230     x=305  y=161  width=29   height=19   xoffset=0    yoffset=19   xadvance=29   page=0    chnl=0 
char id=231     x=282  y=134  width=16   height=27   xoffset=1    yoffset=18   xadvance=17   page=0    chnl=0 
char id=232     x=17   y=76   width=18   height=30   xoffset=0    yoffset=8    xadvance=18   page=0    chnl=0 
char id=233     x=35   y=76   width=18   height=30   xoffset=0    yoffset=8    xadvance=18   page=0    chnl=0 
char id=234     x=53   y=76   width=18   height=30   xoffset=0    yoffset=8    xadvance=18   page=0    chnl=0 
char id=235     x=298  y=134  width=18   height=27   xoffset=0    yoffset=11   xadvance=18   page=0    chnl=0 
char id=236     x=500  y=41   width=9    height=29   xoffset=-1   yoffset=8    xadvance=9    page=0    chnl=0 
char id=237     x=298  y=76   width=10   height=29   xoffset=0    yoffset=8    xadvance=9    page=0    chnl=0 
char id=238     x=308  y=76   width=15   height=29   xoffset=-3   yoffset=8    xadvance=9    page=0    chnl=0 
char id=239     x=468  y=134  width=14   height=25   xoffset=-3   yoffset=12   xadvance=9    page=0    chnl=0 
char id=240     x=316  y=134  width=15   height=27   xoffset=2    yoffset=11   xadvance=17   page=0    chnl=0 
char id=241     x=321  y=106  width=17   height=28   xoffset=1    yoffset=10   xadvance=17   page=0    chnl=0 
char id=242     x=71   y=76   width=16   height=30   xoffset=0    yoffset=8    xadvance=17   page=0    chnl=0 
char id=243     x=87   y=76   width=16   height=30   xoffset=0    yoffset=8    xadvance=17   page=0    chnl=0 
char id=244     x=103  y=76   width=16   height=30   xoffset=0    yoffset=8    xadvance=16   page=0    chnl=0 
char id=245     x=338  y=106  width=18   height=28   xoffset=0    yoffset=10   xadvance=16   page=0    chnl=0 
char id=246     x=482  y=134  width=17   height=25   xoffset=0    yoffset=13   xadvance=17   page=0    chnl=0 
char id=247     x=340  y=161  width=16   height=18   xoffset=0    yoffset=16   xadvance=16   page=0    chnl=0 
char id=248     x=287  y=161  width=18   height=20   xoffset=-1   yoffset=18   xadvance=17   page=0    chnl=0 
char id=249     x=119  y=76   width=15   height=30   xoffset=1    yoffset=8    xadvance=17   page=0    chnl=0 
char id=250     x=134  y=76   width=15   height=30   xoffset=1    yoffset=8    xadvance=17   page=0    chnl=0 
char id=251     x=371  y=41   width=15   height=31   xoffset=1    yoffset=7    xadvance=17   page=0    chnl=0 
char id=252     x=331  y=134  width=15   height=27   xoffset=1    yoffset=11   xadvance=17   page=0    chnl=0 
char id=253     x=95   y=0    width=18   height=38   xoffset=-1   yoffset=8    xadvance=17   page=0    chnl=0 
char id=254     x=86   y=41   width=16   height=35   xoffset=1    yoffset=11   xadvance=17   page=0    chnl=0 
char id=255     x=130  y=41   width=18   height=34   xoffset=-1   yoffset=12   xadvance=14   page=0    chnl=0 
kernings count=0
